{

	"ua": "",

    "homeUrl": "http://www.310.tv/",

    "cateManual": {"热门赛事":"tv"},

	"cateUrl": "http://www.310.tv",

	"cateVodNode": "//div[@class='list_content']/a",

	"cateVodName": "concat(//div[contains(@class,'team zhudui')]/p/text(),'---',//div[contains(@class,'team kedui')]/p/text())",

	"cateVodId": "/@href",

	"cateVodIdR": "http://www.310.tv/bofang/(\\w+)",

	"cateVodImg": "//div[contains(@class,'team zhudui')]/span/img/@op-zfr-a-g",

	"cateVodImgR": "",

	"cateVodMark": "//div[@class='center']/p[contains(@class,'eventtime')]/span[2]/i/text())",

	"dtUrl": "http://www.310.tv/bofang/{vid}",

	"dtNode": "//body",

	"dtName": "",

	"dtNameR": "",

	"dtImg": "",

	"dtImgR": "",

    "dtCate": "//span[@class='xq_fenlei_name']/text()",

    "dtArea": "",

    "dtActor":"",

    "dtDesc": "",  

	"forcePlay":"true",

	"dtFromNode": "/nil",

	"dtFromName": "",

	"dtFromNameR": "",

	"dtUrlNode": "/nil",

	"dtUrlSubNode": "",

	"dtUrlId": "",

	"dtUrlIdR": "",

	"dtUrlName": "",

	"dtUrlNameR": "",

	"playUrl":""

}
